[
  {
    "number": 1,
    "title": "Office plants",
    "filename": "1.jpg",
    "date": "2020-04-20",
    "participants": [
      "mike",
      "jerry",
      "boris"
    ]
  },
  {
    "number": 2,
    "title": "In the canteen",
    "filename": "2.jpg",
    "date": "2020-04-27",
    "participants": [
      "jerry"
    ]
  },
  {
    "number": 3,
    "title": "Deadlines",
    "filename": "3.jpg",
    "date": "2020-05-04",
    "participants": [
      "mike",
      "van_horn"
    ]
  },
  {
    "number": 4,
    "title": "Travel to work",
    "filename": "4.jpg",
    "date": "2020-05-18",
    "participants": [
      "mike",
      "jerry",
      "larry"
    ]
  },
  {
    "number": 5,
    "title": "Boring meeting",
    "filename": "5.jpg",
    "date": "2020-06-01",
    "participants": [
      "mike",
      "jerry",
      "larry"
    ]
  },
  {
    "number": 6,
    "title": "Party hard",
    "filename": "6.jpg",
    "date": "2020-06-15",
    "participants": [
      "mike",
      "randy"
    ]
  },
  {
    "number": 7,
    "title": "Tech support",
    "filename": "7.jpg",
    "date": "2020-06-29",
    "participants": [
      "jerry"
    ]
  },
  {
    "number": 8,
    "title": "Horrible noises",
    "filename": "8.jpg",
    "date": "2020-07-13",
    "participants": [
      "mike",
      "bob"
    ]
  },
  {
    "number": 9,
    "title": "Communication",
    "filename": "9.jpg",
    "date": "2020-07-27",
    "participants": [
      "agatha",
      "jerry"
    ]
  },
  {
    "number": 10,
    "title": "How to be sick",
    "filename": "10.jpg",
    "date": "2020-08-10",
    "participants": [
      "larry",
      "mike",
      "van_horn",
      "jerry"
    ]
  },
  {
    "number": 11,
    "title": "Candidates",
    "filename": "11.jpg",
    "date": "2020-08-24",
    "participants": [
      "van_horn",
      "edna"
    ]
  },
  {
    "number": 12,
    "title": "Perfect solution",
    "filename": "12.jpg",
    "date": "2020-09-07",
    "participants": [
      "jerry",
      "mike"
    ]
  },
  {
    "number": 13,
    "title": "Save regularly",
    "filename": "13.jpg",
    "date": "2020-09-21",
    "participants": [
      "david",
      "jerry",
      "mike"
    ]
  },
  {
    "number": 14,
    "title": "Shorthanded",
    "filename": "14.jpg",
    "date": "2020-10-05",
    "participants": [
      "agatha",
      "bob"
    ]
  },
  {
    "number": 15,
    "title": "Remote colleagues (2 pages)",
    "filename": "15_1.jpg|15_2.jpg",
    "date": "2020-10-19",
    "participants": [
      "van_horn",
      "jerry",
      "mike",
      "randy"
    ]
  },
  {
    "number": 16,
    "title": "Tech support 2",
    "filename": "16.jpg",
    "date": "2020-11-02",
    "participants": [
      "boris"
    ]
  },
  {
    "number": 17,
    "title": "Software development",
    "filename": "17.jpg",
    "date": "2020-11-16",
    "participants": [
      "mike"
    ]
  },
  {
    "number": 18,
    "title": "Project phases",
    "filename": "18.jpg",
    "date": "2020-11-30",
    "participants": [
      "mike"
    ]
  },
  {
    "number": 19,
    "title": "Happy holidays",
    "filename": "19.jpg",
    "date": "2020-12-21",
    "participants": [
      "jerry",
      "agatha",
      "van_horn",
      "mike",
      "boris",
      "bob",
      "randy",
      "edna",
      "larry"
    ]
  },
  {
    "number": 20,
    "title": "Bad mood",
    "filename": "20.jpg",
    "date": "2021-01-18",
    "participants": [
      "mike",
      "jerry"
    ]
  },
  {
    "number": 21,
    "title": "End user",
    "filename": "21.jpg",
    "date": "2021-02-01",
    "participants": [
      "larry",
      "van_horn"
    ]
  },
  {
    "number": 22,
    "title": "Office drinks",
    "filename": "22.jpg",
    "date": "2021-02-15",
    "participants": [
      "larry",
      "jerry",
      "randy",
      "bob",
      "boris"
    ]
  },
  {
    "number": 23,
    "title": "Kids",
    "filename": "23.jpg",
    "date": "2021-03-01",
    "participants": [
      "agatha",
      "linda"
    ]
  },
  {
    "number": 24,
    "title": "Feeling down (2 pages)",
    "filename": "24_1.jpg|24_2.jpg",
    "date": "2021-03-22",
    "participants": [
      "van_horn",
      "jerry",
      "mike",
      "randy"
    ]
  },
  {
    "number": 25,
    "title": "What's the smell? (2 pages)",
    "filename": "25_1.jpg|25_2.jpg",
    "date": "2021-04-27",
    "participants": [
      "jerry",
      "mike"
    ]
  },
  {
    "number": 26,
    "title": "Habits die hard",
    "filename": "26.jpg",
    "date": "2021-06-29",
    "participants": [
      "jerry",
      "mike"
    ]
  },
  {
    "number": 27,
    "title": "Perfect vacation",
    "filename": "27.jpg",
    "date": "2021-07-12",
    "participants": [
      "jerry",
      "randy",
      "linda"
    ]
  },
  {
    "number": 28,
    "title": "Perfect vacation 2",
    "filename": "28.jpg",
    "date": "2021-07-26",
    "participants": [
      "mike",
      "jerry"
    ]
  },
  {
    "number": 29,
    "title": "Work for tomorrow",
    "filename": "29.jpg",
    "date": "2021-08-30",
    "participants": [
      "mike"
    ]
  },
  {
    "number": 30,
    "title": "Productivity",
    "filename": "30.jpg",
    "date": "2021-09-13",
    "participants": [
      "agatha",
      "jerry"
    ]
  },
  {
    "number": 31,
    "title": "New followers",
    "filename": "31.jpg",
    "date": "2022-04-01",
    "participants": [
      "mike",
      "jerry"
    ]
  },
  {
    "number": 32,
    "title": "Why I love to work here",
    "filename": "32.jpg",
    "date": "2022-04-09",
    "participants": [
      "mike",
      "larry",
      "randy",
      "boris",
      "agatha",
      "linda"
    ]
  },
  {
    "number": 33,
    "title": "Jerry's new car",
    "filename": "33.jpg",
    "date": "2022-05-03",
    "participants": [
      "jerry",
      "mike"
    ]
  },
  {
    "number": 34,
    "title": "Want some water?",
    "filename": "34.jpg",
    "date": "2022-06-06",
    "participants": [
      "jerry",
      "mike",
      "linda"
    ]
  }
]
