<?xml version="1.0" encoding="UTF-8" standalone="no"?>
<svg
   width="24"
   height="24"
   viewBox="0 0 12 12"
   version="1.1"
   id="svg905"
   inkscape:version="1.1.2 (0a00cf5339, 2022-02-04)"
   sodipodi:docname="external.svg"
   xmlns:inkscape="http://www.inkscape.org/namespaces/inkscape"
   xmlns:sodipodi="http://sodipodi.sourceforge.net/DTD/sodipodi-0.dtd"
   xmlns="http://www.w3.org/2000/svg"
   xmlns:svg="http://www.w3.org/2000/svg"
   xmlns:rdf="http://www.w3.org/1999/02/22-rdf-syntax-ns#"
   xmlns:cc="http://creativecommons.org/ns#"
   xmlns:dc="http://purl.org/dc/elements/1.1/">
  <defs
     id="defs899" />
  <sodipodi:namedview
     id="base"
     pagecolor="#ffffff"
     bordercolor="#666666"
     borderopacity="1.0"
     inkscape:pageopacity="0.0"
     inkscape:pageshadow="2"
     inkscape:zoom="14.481547"
     inkscape:cx="-9.5293687"
     inkscape:cy="3.1764562"
     inkscape:document-units="px"
     inkscape:current-layer="g844"
     inkscape:document-rotation="0"
     showgrid="true"
     fit-margin-top="0"
     fit-margin-left="0"
     fit-margin-right="0"
     fit-margin-bottom="0"
     units="px"
     inkscape:snap-page="true"
     inkscape:snap-global="false"
     inkscape:pagecheckerboard="0">
    <inkscape:grid
       type="xygrid"
       id="grid834"
       empspacing="4"
       spacingx="0.26458333"
       spacingy="0.26458333" />
    <inkscape:grid
       type="xygrid"
       id="grid836"
       color="#ff3f3f"
       opacity="0.1254902"
       empcolor="#ff3f3f"
       empopacity="0.25098039"
       empspacing="4"
       dotted="true"
       originx="0.13229167"
       originy="0.13229167"
       spacingx="0.26458333"
       spacingy="0.26458333" />
  </sodipodi:namedview>
  <metadata
     id="metadata902">
    <rdf:RDF>
      <cc:Work
         rdf:about="">
        <dc:format>image/svg+xml</dc:format>
        <dc:type
           rdf:resource="http://purl.org/dc/dcmitype/StillImage" />
      </cc:Work>
    </rdf:RDF>
  </metadata>
  <g
     inkscape:label="Layer 1"
     inkscape:groupmode="layer"
     id="layer1"
     transform="translate(-156.24159,-140.28944)">
    <g
       id="g844"
       transform="matrix(0.95966287,-0.06519878,0.06431716,0.9728174,-2.8729541,14.586815)">
      <path
         id="rect863"
         style="fill:none;stroke:#000000;stroke-width:1.03263;stroke-linecap:round;stroke-linejoin:round;stroke-dashoffset:113.39;paint-order:markers fill stroke"
         d="m 167.42392,145.84146 -0.24979,2.95802 c -0.15346,1.81729 -1.8228,3.11436 -3.63605,2.91861 l -3.97002,-0.42858 c -1.81324,-0.19575 -3.1111,-1.81263 -2.90998,-3.62529 l 0.44025,-3.96789 c 0.20111,-1.81266 1.81804,-3.06411 3.63604,-2.91862 l 3.2577,0.26071"
         sodipodi:nodetypes="cssssssc" />
      <path
         style="font-variation-settings:normal;opacity:1;vector-effect:none;fill:none;fill-opacity:1;stroke:#000000;stroke-width:1.03262;stroke-linecap:round;stroke-linejoin:round;stroke-miterlimit:4;stroke-dasharray:none;stroke-dashoffset:0;stroke-opacity:1;stop-color:#000000;stop-opacity:1"
         d="m 167.84736,142.0464 c -2.54059,1.02176 -4.78054,4.05399 -7.9813,5.67246"
         id="path854"
         sodipodi:nodetypes="cc" />
      <path
         style="font-variation-settings:normal;opacity:1;vector-effect:none;fill:none;fill-opacity:1;stroke:#000000;stroke-width:1.03262;stroke-linecap:round;stroke-linejoin:round;stroke-miterlimit:4;stroke-dasharray:none;stroke-dashoffset:0;stroke-opacity:1;stop-color:#000000;stop-opacity:1"
         d="m 165.94015,141.50408 2.11313,0.31457 -0.18091,1.97415"
         id="path856"
         sodipodi:nodetypes="ccc" />
    </g>
  </g>
</svg>
