<?xml version="1.0" encoding="UTF-8" standalone="no"?>
<svg
   xmlns:dc="http://purl.org/dc/elements/1.1/"
   xmlns:cc="http://creativecommons.org/ns#"
   xmlns:rdf="http://www.w3.org/1999/02/22-rdf-syntax-ns#"
   xmlns:svg="http://www.w3.org/2000/svg"
   xmlns="http://www.w3.org/2000/svg"
   xmlns:sodipodi="http://sodipodi.sourceforge.net/DTD/sodipodi-0.dtd"
   xmlns:inkscape="http://www.inkscape.org/namespaces/inkscape"
   width="24"
   height="24"
   viewBox="0 0 6.35 6.35"
   version="1.1"
   id="svg905"
   inkscape:version="1.0.1 (3bc2e813f5, 2020-09-07)"
   sodipodi:docname="link.svg"
   inkscape:export-filename="/home/irina/Charon1/Art/Digital art/mesozoffice/assets/social_logo/24x24/link.png"
   inkscape:export-xdpi="96"
   inkscape:export-ydpi="96">
  <defs
     id="defs899" />
  <sodipodi:namedview
     id="base"
     pagecolor="#ffffff"
     bordercolor="#666666"
     borderopacity="1.0"
     inkscape:pageopacity="0.0"
     inkscape:pageshadow="2"
     inkscape:zoom="28.963094"
     inkscape:cx="7.1298573"
     inkscape:cy="13.230152"
     inkscape:document-units="px"
     inkscape:current-layer="g844"
     inkscape:document-rotation="0"
     showgrid="true"
     fit-margin-top="0"
     fit-margin-left="0"
     fit-margin-right="0"
     fit-margin-bottom="0"
     units="px"
     inkscape:snap-page="true"
     inkscape:snap-global="false">
    <inkscape:grid
       type="xygrid"
       id="grid834"
       empspacing="4"
       spacingx="0.26458333"
       spacingy="0.26458333" />
    <inkscape:grid
       type="xygrid"
       id="grid836"
       color="#ff3f3f"
       opacity="0.1254902"
       empcolor="#ff3f3f"
       empopacity="0.25098039"
       empspacing="4"
       dotted="true"
       originx="0.13229167"
       originy="0.13229167"
       spacingx="0.26458333"
       spacingy="0.26458333" />
  </sodipodi:namedview>
  <metadata
     id="metadata902">
    <rdf:RDF>
      <cc:Work
         rdf:about="">
        <dc:format>image/svg+xml</dc:format>
        <dc:type
           rdf:resource="http://purl.org/dc/dcmitype/StillImage" />
        <dc:title></dc:title>
      </cc:Work>
    </rdf:RDF>
  </metadata>
  <g
     inkscape:label="Layer 1"
     inkscape:groupmode="layer"
     id="layer1"
     transform="translate(-156.24159,-140.28944)">
    <g
       id="g844"
       transform="matrix(0.95966287,-0.06519878,0.06431716,0.9728174,-2.8729541,14.586815)">
      <path
         id="rect865"
         style="fill:none;stroke:#060606;stroke-width:0.546442;stroke-linecap:round;stroke-linejoin:round;stroke-miterlimit:4;stroke-dasharray:none;stroke-dashoffset:113.39;stroke-opacity:1"
         d="m 160.02348,143.44612 c -0.31578,0.48278 -0.90688,0.6566 -1.32531,0.38975 l -0.37687,-0.24036 c -0.41845,-0.26686 -0.50106,-0.87034 -0.18529,-1.35312 l 0.98909,-1.51205 c 0.3158,-0.48278 0.90687,-0.65659 1.32531,-0.38974 l 0.37687,0.24036 c 0.41843,0.26686 0.50107,0.87034 0.18528,1.35311"
         sodipodi:nodetypes="cssssssc" />
      <path
         id="rect865-5"
         style="fill:none;stroke:#060606;stroke-width:0.546442;stroke-linecap:round;stroke-linejoin:round;stroke-miterlimit:4;stroke-dasharray:none;stroke-dashoffset:113.39;stroke-opacity:1"
         d="m 159.00789,142.89298 c 0.3158,-0.48276 0.90688,-0.65659 1.32532,-0.38973 l 0.37687,0.24036 c 0.41842,0.26685 0.50107,0.87034 0.18529,1.35311 l -0.9891,1.51206 c -0.31578,0.48277 -0.90688,0.65658 -1.3253,0.38973 l -0.37689,-0.24035 c -0.41843,-0.26686 -0.50104,-0.87034 -0.18526,-1.35312"
         sodipodi:nodetypes="cssssssc" />
    </g>
  </g>
</svg>
