<?xml version="1.0" encoding="UTF-8" standalone="no"?>
<svg
   xmlns:dc="http://purl.org/dc/elements/1.1/"
   xmlns:cc="http://creativecommons.org/ns#"
   xmlns:rdf="http://www.w3.org/1999/02/22-rdf-syntax-ns#"
   xmlns:svg="http://www.w3.org/2000/svg"
   xmlns="http://www.w3.org/2000/svg"
   xmlns:sodipodi="http://sodipodi.sourceforge.net/DTD/sodipodi-0.dtd"
   xmlns:inkscape="http://www.inkscape.org/namespaces/inkscape"
   width="24"
   height="24"
   viewBox="0 0 12 12"
   version="1.1"
   id="svg905"
   inkscape:version="1.0.1 (3bc2e813f5, 2020-09-07)"
   sodipodi:docname="twitter.svg">
  <defs
     id="defs899" />
  <sodipodi:namedview
     id="base"
     pagecolor="#ffffff"
     bordercolor="#666666"
     borderopacity="1.0"
     inkscape:pageopacity="0.0"
     inkscape:pageshadow="2"
     inkscape:zoom="10.24"
     inkscape:cx="19.258957"
     inkscape:cy="29.751362"
     inkscape:document-units="px"
     inkscape:current-layer="g844"
     inkscape:document-rotation="0"
     showgrid="true"
     fit-margin-top="0"
     fit-margin-left="0"
     fit-margin-right="0"
     fit-margin-bottom="0"
     units="px"
     inkscape:snap-page="true"
     inkscape:snap-global="false">
    <inkscape:grid
       type="xygrid"
       id="grid834"
       empspacing="4"
       spacingx="0.26458333"
       spacingy="0.26458333" />
    <inkscape:grid
       type="xygrid"
       id="grid836"
       color="#ff3f3f"
       opacity="0.1254902"
       empcolor="#ff3f3f"
       empopacity="0.25098039"
       empspacing="4"
       dotted="true"
       originx="0.13229167"
       originy="0.13229167"
       spacingx="0.26458333"
       spacingy="0.26458333" />
  </sodipodi:namedview>
  <metadata
     id="metadata902">
    <rdf:RDF>
      <cc:Work
         rdf:about="">
        <dc:format>image/svg+xml</dc:format>
        <dc:type
           rdf:resource="http://purl.org/dc/dcmitype/StillImage" />
        <dc:title></dc:title>
      </cc:Work>
    </rdf:RDF>
  </metadata>
  <g
     inkscape:label="Layer 1"
     inkscape:groupmode="layer"
     id="layer1"
     transform="translate(-156.24159,-140.28944)">
    <g
       id="g844"
       transform="matrix(0.95966287,-0.06519878,0.06431716,0.9728174,-2.8729541,14.586815)">
      <path
         sodipodi:nodetypes="cccccccc"
         id="path869"
         d="m 156.78944,143.19652 c 1.24351,0.86072 2.81057,1.23112 4.32634,1.25197 0.002,-2.83647 3.37002,-4.56132 5.35251,-1.5543 0.62482,0.15343 1.10941,0.30291 1.72348,0.31206 -0.4172,0.41651 -0.61277,0.7305 -0.92672,1.19672 -0.13047,6.64763 -5.51269,8.02662 -10.44129,5.83303 1.8571,-1.22433 2.07426,-1.24369 3.01476,-2.24202 -2.09844,-0.52036 -3.62982,-2.51626 -3.04908,-4.79746 z"
         style="opacity:1;vector-effect:none;fill:none;fill-opacity:1;stroke:#000000;stroke-width:1.03262;stroke-linecap:round;stroke-linejoin:round;stroke-miterlimit:4;stroke-dasharray:none;stroke-dashoffset:0;stroke-opacity:1" />
    </g>
  </g>
</svg>
